Terminals unused in grammar

   T_error


State 25 conflicts: 1 shift/reduce
State 37 conflicts: 1 shift/reduce


Grammar

    0 $accept: html $end

    1 html: T_html fonttext T_end_html
    2     | T_html fonttable T_end_html
    3     | error

    4 fonttext: text

    5 text: text textitem
    6     | textitem

    7 textitem: string
    8         | br
    9         | font text n_font
   10         | italic text n_italic
   11         | underline text n_underline
   12         | bold text n_bold
   13         | sup text n_sup
   14         | sub text n_sub
   15         | strike text n_strike

   16 font: T_font

   17 n_font: T_end_font

   18 italic: T_italic

   19 n_italic: T_n_italic

   20 bold: T_bold

   21 n_bold: T_n_bold

   22 strike: T_s

   23 n_strike: T_n_s

   24 underline: T_underline

   25 n_underline: T_n_underline

   26 sup: T_sup

   27 n_sup: T_n_sup

   28 sub: T_sub

   29 n_sub: T_n_sub

   30 br: T_br T_end_br
   31   | T_BR

   32 string: T_string
   33       | string T_string

   34 @1: /* empty */

   35 table: opt_space T_table @1 rows T_end_table opt_space

   36 fonttable: table
   37          | font table n_font
   38          | italic table n_italic
   39          | underline table n_underline
   40          | bold table n_bold

   41 opt_space: string
   42          | /* empty */

   43 rows: row
   44     | rows row
   45     | rows HR row

   46 $@2: /* empty */

   47 row: T_row $@2 cells T_end_row

   48 cells: cell
   49      | cells cell
   50      | cells VR cell

   51 $@3: /* empty */

   52 cell: T_cell fonttable $@3 T_end_cell

   53 $@4: /* empty */

   54 cell: T_cell fonttext $@4 T_end_cell

   55 $@5: /* empty */

   56 cell: T_cell image $@5 T_end_cell

   57 $@6: /* empty */

   58 cell: T_cell $@6 T_end_cell

   59 image: T_img T_end_img
   60      | T_IMG

   61 HR: T_hr T_end_hr
   62   | T_HR

   63 VR: T_vr T_end_vr
   64   | T_VR


Terminals, with rules where they appear

$end (0) 0
error (256) 3
T_end_br (258) 30
T_end_img (259) 59
T_row (260) 47
T_end_row (261) 47
T_html (262) 1 2
T_end_html (263) 1 2
T_end_table (264) 35
T_end_cell (265) 52 54 56 58
T_end_font (266) 17
T_string (267) 32 33
T_error (268)
T_n_italic (269) 19
T_n_bold (270) 21
T_n_underline (271) 25
T_n_sup (272) 27
T_n_sub (273) 29
T_n_s (274) 23
T_HR (275) 62
T_hr (276) 61
T_end_hr (277) 61
T_VR (278) 64
T_vr (279) 63
T_end_vr (280) 63
T_BR (281) 31
T_br (282) 30
T_IMG (283) 60
T_img (284) 59
T_table (285) 35
T_cell (286) 52 54 56 58
T_font (287) 16
T_italic (288) 18
T_bold (289) 20
T_underline (290) 24
T_sup (291) 26
T_sub (292) 28
T_s (293) 22


Nonterminals, with rules where they appear

$accept (39)
    on left: 0
html (40)
    on left: 1 2 3, on right: 0
fonttext (41)
    on left: 4, on right: 1 54
text (42)
    on left: 5 6, on right: 4 5 9 10 11 12 13 14 15
textitem (43)
    on left: 7 8 9 10 11 12 13 14 15, on right: 5 6
font (44)
    on left: 16, on right: 9 37
n_font (45)
    on left: 17, on right: 9 37
italic (46)
    on left: 18, on right: 10 38
n_italic (47)
    on left: 19, on right: 10 38
bold (48)
    on left: 20, on right: 12 40
n_bold (49)
    on left: 21, on right: 12 40
strike (50)
    on left: 22, on right: 15
n_strike (51)
    on left: 23, on right: 15
underline (52)
    on left: 24, on right: 11 39
n_underline (53)
    on left: 25, on right: 11 39
sup (54)
    on left: 26, on right: 13
n_sup (55)
    on left: 27, on right: 13
sub (56)
    on left: 28, on right: 14
n_sub (57)
    on left: 29, on right: 14
br (58)
    on left: 30 31, on right: 8
string (59)
    on left: 32 33, on right: 7 33 41
table (60)
    on left: 35, on right: 36 37 38 39 40
@1 (61)
    on left: 34, on right: 35
fonttable (62)
    on left: 36 37 38 39 40, on right: 2 52
opt_space (63)
    on left: 41 42, on right: 35
rows (64)
    on left: 43 44 45, on right: 35 44 45
row (65)
    on left: 47, on right: 43 44 45
$@2 (66)
    on left: 46, on right: 47
cells (67)
    on left: 48 49 50, on right: 47 49 50
cell (68)
    on left: 52 54 56 58, on right: 48 49 50
$@3 (69)
    on left: 51, on right: 52
$@4 (70)
    on left: 53, on right: 54
$@5 (71)
    on left: 55, on right: 56
$@6 (72)
    on left: 57, on right: 58
image (73)
    on left: 59 60, on right: 56
HR (74)
    on left: 61 62, on right: 45
VR (75)
    on left: 63 64, on right: 50


state 0

    0 $accept: . html $end

    error   shift, and go to state 1
    T_html  shift, and go to state 2

    html  go to state 3


state 1

    3 html: error .

    $default  reduce using rule 3 (html)


state 2

    1 html: T_html . fonttext T_end_html
    2     | T_html . fonttable T_end_html

    T_string     shift, and go to state 4
    T_BR         shift, and go to state 5
    T_br         shift, and go to state 6
    T_font       shift, and go to state 7
    T_italic     shift, and go to state 8
    T_bold       shift, and go to state 9
    T_underline  shift, and go to state 10
    T_sup        shift, and go to state 11
    T_sub        shift, and go to state 12
    T_s          shift, and go to state 13

    $default  reduce using rule 42 (opt_space)

    fonttext   go to state 14
    text       go to state 15
    textitem   go to state 16
    font       go to state 17
    italic     go to state 18
    bold       go to state 19
    strike     go to state 20
    underline  go to state 21
    sup        go to state 22
    sub        go to state 23
    br         go to state 24
    string     go to state 25
    table      go to state 26
    fonttable  go to state 27
    opt_space  go to state 28


state 3

    0 $accept: html . $end

    $end  shift, and go to state 29


state 4

   32 string: T_string .

    $default  reduce using rule 32 (string)


state 5

   31 br: T_BR .

    $default  reduce using rule 31 (br)


state 6

   30 br: T_br . T_end_br

    T_end_br  shift, and go to state 30


state 7

   16 font: T_font .

    $default  reduce using rule 16 (font)


state 8

   18 italic: T_italic .

    $default  reduce using rule 18 (italic)


state 9

   20 bold: T_bold .

    $default  reduce using rule 20 (bold)


state 10

   24 underline: T_underline .

    $default  reduce using rule 24 (underline)


state 11

   26 sup: T_sup .

    $default  reduce using rule 26 (sup)


state 12

   28 sub: T_sub .

    $default  reduce using rule 28 (sub)


state 13

   22 strike: T_s .

    $default  reduce using rule 22 (strike)


state 14

    1 html: T_html fonttext . T_end_html

    T_end_html  shift, and go to state 31


state 15

    4 fonttext: text .
    5 text: text . textitem

    T_string     shift, and go to state 4
    T_BR         shift, and go to state 5
    T_br         shift, and go to state 6
    T_font       shift, and go to state 7
    T_italic     shift, and go to state 8
    T_bold       shift, and go to state 9
    T_underline  shift, and go to state 10
    T_sup        shift, and go to state 11
    T_sub        shift, and go to state 12
    T_s          shift, and go to state 13

    $default  reduce using rule 4 (fonttext)

    textitem   go to state 32
    font       go to state 33
    italic     go to state 34
    bold       go to state 35
    strike     go to state 20
    underline  go to state 36
    sup        go to state 22
    sub        go to state 23
    br         go to state 24
    string     go to state 37


state 16

    6 text: textitem .

    $default  reduce using rule 6 (text)


state 17

    9 textitem: font . text n_font
   37 fonttable: font . table n_font

    T_string     shift, and go to state 4
    T_BR         shift, and go to state 5
    T_br         shift, and go to state 6
    T_font       shift, and go to state 7
    T_italic     shift, and go to state 8
    T_bold       shift, and go to state 9
    T_underline  shift, and go to state 10
    T_sup        shift, and go to state 11
    T_sub        shift, and go to state 12
    T_s          shift, and go to state 13

    $default  reduce using rule 42 (opt_space)

    text       go to state 38
    textitem   go to state 16
    font       go to state 33
    italic     go to state 34
    bold       go to state 35
    strike     go to state 20
    underline  go to state 36
    sup        go to state 22
    sub        go to state 23
    br         go to state 24
    string     go to state 25
    table      go to state 39
    opt_space  go to state 28


state 18

   10 textitem: italic . text n_italic
   38 fonttable: italic . table n_italic

    T_string     shift, and go to state 4
    T_BR         shift, and go to state 5
    T_br         shift, and go to state 6
    T_font       shift, and go to state 7
    T_italic     shift, and go to state 8
    T_bold       shift, and go to state 9
    T_underline  shift, and go to state 10
    T_sup        shift, and go to state 11
    T_sub        shift, and go to state 12
    T_s          shift, and go to state 13

    $default  reduce using rule 42 (opt_space)

    text       go to state 40
    textitem   go to state 16
    font       go to state 33
    italic     go to state 34
    bold       go to state 35
    strike     go to state 20
    underline  go to state 36
    sup        go to state 22
    sub        go to state 23
    br         go to state 24
    string     go to state 25
    table      go to state 41
    opt_space  go to state 28


state 19

   12 textitem: bold . text n_bold
   40 fonttable: bold . table n_bold

    T_string     shift, and go to state 4
    T_BR         shift, and go to state 5
    T_br         shift, and go to state 6
    T_font       shift, and go to state 7
    T_italic     shift, and go to state 8
    T_bold       shift, and go to state 9
    T_underline  shift, and go to state 10
    T_sup        shift, and go to state 11
    T_sub        shift, and go to state 12
    T_s          shift, and go to state 13

    $default  reduce using rule 42 (opt_space)

    text       go to state 42
    textitem   go to state 16
    font       go to state 33
    italic     go to state 34
    bold       go to state 35
    strike     go to state 20
    underline  go to state 36
    sup        go to state 22
    sub        go to state 23
    br         go to state 24
    string     go to state 25
    table      go to state 43
    opt_space  go to state 28


state 20

   15 textitem: strike . text n_strike

    T_string     shift, and go to state 4
    T_BR         shift, and go to state 5
    T_br         shift, and go to state 6
    T_font       shift, and go to state 7
    T_italic     shift, and go to state 8
    T_bold       shift, and go to state 9
    T_underline  shift, and go to state 10
    T_sup        shift, and go to state 11
    T_sub        shift, and go to state 12
    T_s          shift, and go to state 13

    text       go to state 44
    textitem   go to state 16
    font       go to state 33
    italic     go to state 34
    bold       go to state 35
    strike     go to state 20
    underline  go to state 36
    sup        go to state 22
    sub        go to state 23
    br         go to state 24
    string     go to state 37


state 21

   11 textitem: underline . text n_underline
   39 fonttable: underline . table n_underline

    T_string     shift, and go to state 4
    T_BR         shift, and go to state 5
    T_br         shift, and go to state 6
    T_font       shift, and go to state 7
    T_italic     shift, and go to state 8
    T_bold       shift, and go to state 9
    T_underline  shift, and go to state 10
    T_sup        shift, and go to state 11
    T_sub        shift, and go to state 12
    T_s          shift, and go to state 13

    $default  reduce using rule 42 (opt_space)

    text       go to state 45
    textitem   go to state 16
    font       go to state 33
    italic     go to state 34
    bold       go to state 35
    strike     go to state 20
    underline  go to state 36
    sup        go to state 22
    sub        go to state 23
    br         go to state 24
    string     go to state 25
    table      go to state 46
    opt_space  go to state 28


state 22

   13 textitem: sup . text n_sup

    T_string     shift, and go to state 4
    T_BR         shift, and go to state 5
    T_br         shift, and go to state 6
    T_font       shift, and go to state 7
    T_italic     shift, and go to state 8
    T_bold       shift, and go to state 9
    T_underline  shift, and go to state 10
    T_sup        shift, and go to state 11
    T_sub        shift, and go to state 12
    T_s          shift, and go to state 13

    text       go to state 47
    textitem   go to state 16
    font       go to state 33
    italic     go to state 34
    bold       go to state 35
    strike     go to state 20
    underline  go to state 36
    sup        go to state 22
    sub        go to state 23
    br         go to state 24
    string     go to state 37


state 23

   14 textitem: sub . text n_sub

    T_string     shift, and go to state 4
    T_BR         shift, and go to state 5
    T_br         shift, and go to state 6
    T_font       shift, and go to state 7
    T_italic     shift, and go to state 8
    T_bold       shift, and go to state 9
    T_underline  shift, and go to state 10
    T_sup        shift, and go to state 11
    T_sub        shift, and go to state 12
    T_s          shift, and go to state 13

    text       go to state 48
    textitem   go to state 16
    font       go to state 33
    italic     go to state 34
    bold       go to state 35
    strike     go to state 20
    underline  go to state 36
    sup        go to state 22
    sub        go to state 23
    br         go to state 24
    string     go to state 37


state 24

    8 textitem: br .

    $default  reduce using rule 8 (textitem)


state 25

    7 textitem: string .
   33 string: string . T_string
   41 opt_space: string .

    T_string  shift, and go to state 49

    T_string  [reduce using rule 7 (textitem)]
    T_table   reduce using rule 41 (opt_space)
    $default  reduce using rule 7 (textitem)


state 26

   36 fonttable: table .

    $default  reduce using rule 36 (fonttable)


state 27

    2 html: T_html fonttable . T_end_html

    T_end_html  shift, and go to state 50


state 28

   35 table: opt_space . T_table @1 rows T_end_table opt_space

    T_table  shift, and go to state 51


state 29

    0 $accept: html $end .

    $default  accept


state 30

   30 br: T_br T_end_br .

    $default  reduce using rule 30 (br)


state 31

    1 html: T_html fonttext T_end_html .

    $default  reduce using rule 1 (html)


state 32

    5 text: text textitem .

    $default  reduce using rule 5 (text)


state 33

    9 textitem: font . text n_font

    T_string     shift, and go to state 4
    T_BR         shift, and go to state 5
    T_br         shift, and go to state 6
    T_font       shift, and go to state 7
    T_italic     shift, and go to state 8
    T_bold       shift, and go to state 9
    T_underline  shift, and go to state 10
    T_sup        shift, and go to state 11
    T_sub        shift, and go to state 12
    T_s          shift, and go to state 13

    text       go to state 38
    textitem   go to state 16
    font       go to state 33
    italic     go to state 34
    bold       go to state 35
    strike     go to state 20
    underline  go to state 36
    sup        go to state 22
    sub        go to state 23
    br         go to state 24
    string     go to state 37


state 34

   10 textitem: italic . text n_italic

    T_string     shift, and go to state 4
    T_BR         shift, and go to state 5
    T_br         shift, and go to state 6
    T_font       shift, and go to state 7
    T_italic     shift, and go to state 8
    T_bold       shift, and go to state 9
    T_underline  shift, and go to state 10
    T_sup        shift, and go to state 11
    T_sub        shift, and go to state 12
    T_s          shift, and go to state 13

    text       go to state 40
    textitem   go to state 16
    font       go to state 33
    italic     go to state 34
    bold       go to state 35
    strike     go to state 20
    underline  go to state 36
    sup        go to state 22
    sub        go to state 23
    br         go to state 24
    string     go to state 37


state 35

   12 textitem: bold . text n_bold

    T_string     shift, and go to state 4
    T_BR         shift, and go to state 5
    T_br         shift, and go to state 6
    T_font       shift, and go to state 7
    T_italic     shift, and go to state 8
    T_bold       shift, and go to state 9
    T_underline  shift, and go to state 10
    T_sup        shift, and go to state 11
    T_sub        shift, and go to state 12
    T_s          shift, and go to state 13

    text       go to state 42
    textitem   go to state 16
    font       go to state 33
    italic     go to state 34
    bold       go to state 35
    strike     go to state 20
    underline  go to state 36
    sup        go to state 22
    sub        go to state 23
    br         go to state 24
    string     go to state 37


state 36

   11 textitem: underline . text n_underline

    T_string     shift, and go to state 4
    T_BR         shift, and go to state 5
    T_br         shift, and go to state 6
    T_font       shift, and go to state 7
    T_italic     shift, and go to state 8
    T_bold       shift, and go to state 9
    T_underline  shift, and go to state 10
    T_sup        shift, and go to state 11
    T_sub        shift, and go to state 12
    T_s          shift, and go to state 13

    text       go to state 45
    textitem   go to state 16
    font       go to state 33
    italic     go to state 34
    bold       go to state 35
    strike     go to state 20
    underline  go to state 36
    sup        go to state 22
    sub        go to state 23
    br         go to state 24
    string     go to state 37


state 37

    7 textitem: string .
   33 string: string . T_string

    T_string  shift, and go to state 49

    T_string  [reduce using rule 7 (textitem)]
    $default  reduce using rule 7 (textitem)


state 38

    5 text: text . textitem
    9 textitem: font text . n_font

    T_end_font   shift, and go to state 52
    T_string     shift, and go to state 4
    T_BR         shift, and go to state 5
    T_br         shift, and go to state 6
    T_font       shift, and go to state 7
    T_italic     shift, and go to state 8
    T_bold       shift, and go to state 9
    T_underline  shift, and go to state 10
    T_sup        shift, and go to state 11
    T_sub        shift, and go to state 12
    T_s          shift, and go to state 13

    textitem   go to state 32
    font       go to state 33
    n_font     go to state 53
    italic     go to state 34
    bold       go to state 35
    strike     go to state 20
    underline  go to state 36
    sup        go to state 22
    sub        go to state 23
    br         go to state 24
    string     go to state 37


state 39

   37 fonttable: font table . n_font

    T_end_font  shift, and go to state 52

    n_font  go to state 54


state 40

    5 text: text . textitem
   10 textitem: italic text . n_italic

    T_string     shift, and go to state 4
    T_n_italic   shift, and go to state 55
    T_BR         shift, and go to state 5
    T_br         shift, and go to state 6
    T_font       shift, and go to state 7
    T_italic     shift, and go to state 8
    T_bold       shift, and go to state 9
    T_underline  shift, and go to state 10
    T_sup        shift, and go to state 11
    T_sub        shift, and go to state 12
    T_s          shift, and go to state 13

    textitem   go to state 32
    font       go to state 33
    italic     go to state 34
    n_italic   go to state 56
    bold       go to state 35
    strike     go to state 20
    underline  go to state 36
    sup        go to state 22
    sub        go to state 23
    br         go to state 24
    string     go to state 37


state 41

   38 fonttable: italic table . n_italic

    T_n_italic  shift, and go to state 55

    n_italic  go to state 57


state 42

    5 text: text . textitem
   12 textitem: bold text . n_bold

    T_string     shift, and go to state 4
    T_n_bold     shift, and go to state 58
    T_BR         shift, and go to state 5
    T_br         shift, and go to state 6
    T_font       shift, and go to state 7
    T_italic     shift, and go to state 8
    T_bold       shift, and go to state 9
    T_underline  shift, and go to state 10
    T_sup        shift, and go to state 11
    T_sub        shift, and go to state 12
    T_s          shift, and go to state 13

    textitem   go to state 32
    font       go to state 33
    italic     go to state 34
    bold       go to state 35
    n_bold     go to state 59
    strike     go to state 20
    underline  go to state 36
    sup        go to state 22
    sub        go to state 23
    br         go to state 24
    string     go to state 37


state 43

   40 fonttable: bold table . n_bold

    T_n_bold  shift, and go to state 58

    n_bold  go to state 60


state 44

    5 text: text . textitem
   15 textitem: strike text . n_strike

    T_string     shift, and go to state 4
    T_n_s        shift, and go to state 61
    T_BR         shift, and go to state 5
    T_br         shift, and go to state 6
    T_font       shift, and go to state 7
    T_italic     shift, and go to state 8
    T_bold       shift, and go to state 9
    T_underline  shift, and go to state 10
    T_sup        shift, and go to state 11
    T_sub        shift, and go to state 12
    T_s          shift, and go to state 13

    textitem   go to state 32
    font       go to state 33
    italic     go to state 34
    bold       go to state 35
    strike     go to state 20
    n_strike   go to state 62
    underline  go to state 36
    sup        go to state 22
    sub        go to state 23
    br         go to state 24
    string     go to state 37


state 45

    5 text: text . textitem
   11 textitem: underline text . n_underline

    T_string       shift, and go to state 4
    T_n_underline  shift, and go to state 63
    T_BR           shift, and go to state 5
    T_br           shift, and go to state 6
    T_font         shift, and go to state 7
    T_italic       shift, and go to state 8
    T_bold         shift, and go to state 9
    T_underline    shift, and go to state 10
    T_sup          shift, and go to state 11
    T_sub          shift, and go to state 12
    T_s            shift, and go to state 13

    textitem     go to state 32
    font         go to state 33
    italic       go to state 34
    bold         go to state 35
    strike       go to state 20
    underline    go to state 36
    n_underline  go to state 64
    sup          go to state 22
    sub          go to state 23
    br           go to state 24
    string       go to state 37


state 46

   39 fonttable: underline table . n_underline

    T_n_underline  shift, and go to state 63

    n_underline  go to state 65


state 47

    5 text: text . textitem
   13 textitem: sup text . n_sup

    T_string     shift, and go to state 4
    T_n_sup      shift, and go to state 66
    T_BR         shift, and go to state 5
    T_br         shift, and go to state 6
    T_font       shift, and go to state 7
    T_italic     shift, and go to state 8
    T_bold       shift, and go to state 9
    T_underline  shift, and go to state 10
    T_sup        shift, and go to state 11
    T_sub        shift, and go to state 12
    T_s          shift, and go to state 13

    textitem   go to state 32
    font       go to state 33
    italic     go to state 34
    bold       go to state 35
    strike     go to state 20
    underline  go to state 36
    sup        go to state 22
    n_sup      go to state 67
    sub        go to state 23
    br         go to state 24
    string     go to state 37


state 48

    5 text: text . textitem
   14 textitem: sub text . n_sub

    T_string     shift, and go to state 4
    T_n_sub      shift, and go to state 68
    T_BR         shift, and go to state 5
    T_br         shift, and go to state 6
    T_font       shift, and go to state 7
    T_italic     shift, and go to state 8
    T_bold       shift, and go to state 9
    T_underline  shift, and go to state 10
    T_sup        shift, and go to state 11
    T_sub        shift, and go to state 12
    T_s          shift, and go to state 13

    textitem   go to state 32
    font       go to state 33
    italic     go to state 34
    bold       go to state 35
    strike     go to state 20
    underline  go to state 36
    sup        go to state 22
    sub        go to state 23
    n_sub      go to state 69
    br         go to state 24
    string     go to state 37


state 49

   33 string: string T_string .

    $default  reduce using rule 33 (string)


state 50

    2 html: T_html fonttable T_end_html .

    $default  reduce using rule 2 (html)


state 51

   35 table: opt_space T_table . @1 rows T_end_table opt_space

    $default  reduce using rule 34 (@1)

    @1  go to state 70


state 52

   17 n_font: T_end_font .

    $default  reduce using rule 17 (n_font)


state 53

    9 textitem: font text n_font .

    $default  reduce using rule 9 (textitem)


state 54

   37 fonttable: font table n_font .

    $default  reduce using rule 37 (fonttable)


state 55

   19 n_italic: T_n_italic .

    $default  reduce using rule 19 (n_italic)


state 56

   10 textitem: italic text n_italic .

    $default  reduce using rule 10 (textitem)


state 57

   38 fonttable: italic table n_italic .

    $default  reduce using rule 38 (fonttable)


state 58

   21 n_bold: T_n_bold .

    $default  reduce using rule 21 (n_bold)


state 59

   12 textitem: bold text n_bold .

    $default  reduce using rule 12 (textitem)


state 60

   40 fonttable: bold table n_bold .

    $default  reduce using rule 40 (fonttable)


state 61

   23 n_strike: T_n_s .

    $default  reduce using rule 23 (n_strike)


state 62

   15 textitem: strike text n_strike .

    $default  reduce using rule 15 (textitem)


state 63

   25 n_underline: T_n_underline .

    $default  reduce using rule 25 (n_underline)


state 64

   11 textitem: underline text n_underline .

    $default  reduce using rule 11 (textitem)


state 65

   39 fonttable: underline table n_underline .

    $default  reduce using rule 39 (fonttable)


state 66

   27 n_sup: T_n_sup .

    $default  reduce using rule 27 (n_sup)


state 67

   13 textitem: sup text n_sup .

    $default  reduce using rule 13 (textitem)


state 68

   29 n_sub: T_n_sub .

    $default  reduce using rule 29 (n_sub)


state 69

   14 textitem: sub text n_sub .

    $default  reduce using rule 14 (textitem)


state 70

   35 table: opt_space T_table @1 . rows T_end_table opt_space

    T_row  shift, and go to state 71

    rows  go to state 72
    row   go to state 73


state 71

   47 row: T_row . $@2 cells T_end_row

    $default  reduce using rule 46 ($@2)

    $@2  go to state 74


state 72

   35 table: opt_space T_table @1 rows . T_end_table opt_space
   44 rows: rows . row
   45     | rows . HR row

    T_row        shift, and go to state 71
    T_end_table  shift, and go to state 75
    T_HR         shift, and go to state 76
    T_hr         shift, and go to state 77

    row  go to state 78
    HR   go to state 79


state 73

   43 rows: row .

    $default  reduce using rule 43 (rows)


state 74

   47 row: T_row $@2 . cells T_end_row

    T_cell  shift, and go to state 80

    cells  go to state 81
    cell   go to state 82


state 75

   35 table: opt_space T_table @1 rows T_end_table . opt_space

    T_string  shift, and go to state 4

    $default  reduce using rule 42 (opt_space)

    string     go to state 83
    opt_space  go to state 84


state 76

   62 HR: T_HR .

    $default  reduce using rule 62 (HR)


state 77

   61 HR: T_hr . T_end_hr

    T_end_hr  shift, and go to state 85


state 78

   44 rows: rows row .

    $default  reduce using rule 44 (rows)


state 79

   45 rows: rows HR . row

    T_row  shift, and go to state 71

    row  go to state 86


state 80

   52 cell: T_cell . fonttable $@3 T_end_cell
   54     | T_cell . fonttext $@4 T_end_cell
   56     | T_cell . image $@5 T_end_cell
   58     | T_cell . $@6 T_end_cell

    T_string     shift, and go to state 4
    T_BR         shift, and go to state 5
    T_br         shift, and go to state 6
    T_IMG        shift, and go to state 87
    T_img        shift, and go to state 88
    T_font       shift, and go to state 7
    T_italic     shift, and go to state 8
    T_bold       shift, and go to state 9
    T_underline  shift, and go to state 10
    T_sup        shift, and go to state 11
    T_sub        shift, and go to state 12
    T_s          shift, and go to state 13

    T_end_cell  reduce using rule 57 ($@6)
    $default    reduce using rule 42 (opt_space)

    fonttext   go to state 89
    text       go to state 15
    textitem   go to state 16
    font       go to state 17
    italic     go to state 18
    bold       go to state 19
    strike     go to state 20
    underline  go to state 21
    sup        go to state 22
    sub        go to state 23
    br         go to state 24
    string     go to state 25
    table      go to state 26
    fonttable  go to state 90
    opt_space  go to state 28
    $@6        go to state 91
    image      go to state 92


state 81

   47 row: T_row $@2 cells . T_end_row
   49 cells: cells . cell
   50      | cells . VR cell

    T_end_row  shift, and go to state 93
    T_VR       shift, and go to state 94
    T_vr       shift, and go to state 95
    T_cell     shift, and go to state 80

    cell  go to state 96
    VR    go to state 97


state 82

   48 cells: cell .

    $default  reduce using rule 48 (cells)


state 83

   33 string: string . T_string
   41 opt_space: string .

    T_string  shift, and go to state 49

    $default  reduce using rule 41 (opt_space)


state 84

   35 table: opt_space T_table @1 rows T_end_table opt_space .

    $default  reduce using rule 35 (table)


state 85

   61 HR: T_hr T_end_hr .

    $default  reduce using rule 61 (HR)


state 86

   45 rows: rows HR row .

    $default  reduce using rule 45 (rows)


state 87

   60 image: T_IMG .

    $default  reduce using rule 60 (image)


state 88

   59 image: T_img . T_end_img

    T_end_img  shift, and go to state 98


state 89

   54 cell: T_cell fonttext . $@4 T_end_cell

    $default  reduce using rule 53 ($@4)

    $@4  go to state 99


state 90

   52 cell: T_cell fonttable . $@3 T_end_cell

    $default  reduce using rule 51 ($@3)

    $@3  go to state 100


state 91

   58 cell: T_cell $@6 . T_end_cell

    T_end_cell  shift, and go to state 101


state 92

   56 cell: T_cell image . $@5 T_end_cell

    $default  reduce using rule 55 ($@5)

    $@5  go to state 102


state 93

   47 row: T_row $@2 cells T_end_row .

    $default  reduce using rule 47 (row)


state 94

   64 VR: T_VR .

    $default  reduce using rule 64 (VR)


state 95

   63 VR: T_vr . T_end_vr

    T_end_vr  shift, and go to state 103


state 96

   49 cells: cells cell .

    $default  reduce using rule 49 (cells)


state 97

   50 cells: cells VR . cell

    T_cell  shift, and go to state 80

    cell  go to state 104


state 98

   59 image: T_img T_end_img .

    $default  reduce using rule 59 (image)


state 99

   54 cell: T_cell fonttext $@4 . T_end_cell

    T_end_cell  shift, and go to state 105


state 100

   52 cell: T_cell fonttable $@3 . T_end_cell

    T_end_cell  shift, and go to state 106


state 101

   58 cell: T_cell $@6 T_end_cell .

    $default  reduce using rule 58 (cell)


state 102

   56 cell: T_cell image $@5 . T_end_cell

    T_end_cell  shift, and go to state 107


state 103

   63 VR: T_vr T_end_vr .

    $default  reduce using rule 63 (VR)


state 104

   50 cells: cells VR cell .

    $default  reduce using rule 50 (cells)


state 105

   54 cell: T_cell fonttext $@4 T_end_cell .

    $default  reduce using rule 54 (cell)


state 106

   52 cell: T_cell fonttable $@3 T_end_cell .

    $default  reduce using rule 52 (cell)


state 107

   56 cell: T_cell image $@5 T_end_cell .

    $default  reduce using rule 56 (cell)
